Week,PVV
1,0.140881202
2,0.137349456
3,0.133522308
4,0.128489795
5,0.124901666
6,0.122976868
7,0.123356399
8,0.121964158
9,0.126124742
10,0.129418341
11,0.134676407
12,0.142639421
13,0.147637856
14,0.151578343
15,0.153494626
16,0.154037108
17,0.154677423
18,0.155206079
19,0.15507159
20,0.153836869
21,0.157607006
22,0.161245988
23,0.162892954
24,0.164201646
25,0.162308635
26,0.165135384
27,0.168441699
28,0.17001027
29,0.170766171
30,0.171781963
31,0.173604301
32,0.176040777
33,0.178380711
34,0.181253786
35,0.185868937
36,0.19242381
37,0.196892139
38,0.197102059
39,0.195197839
40,0.195033077
41,0.191501248
42,0.18820955
43,0.183598393
44,0.181162717
45,0.180380074
46,0.178618215
47,0.177312802
48,0.174064872
49,0.172405075
50,0.17161966
51,0.168525329
52,0.169164947
53,0.169971333
54,0.172232808
55,0.176441375
56,0.179810581
57,0.17752342
58,0.17760274
59,0.177020537
60,0.175056055
61,0.170592082
62,0.165123317
63,0.155005164
64,0.142055379
65,0.146185167
66,0.149358929
67,0.15018743
68,0.150701377
69,0.150885627
70,0.149828154
71,0.147566948
72,0.14817551
73,0.142236007
74,0.138101724
75,0.135177023
76,0.134298426
77,0.133210552
78,0.1320925
79,0.132307762
80,0.131987667
81,0.13168393
82,0.131001668
83,0.128851793
84,0.127780887
85,0.127133595
86,0.12866262
87,0.134941367
88,0.143578837
89,0.148862091
90,0.149121414
91,0.148660173
92,0.150126021
93,0.153880474
94,0.159130441
95,0.165309301
96,0.169941358
97,0.172110151
98,0.171971689
99,0.170516854
100,0.173300846
101,0.17459673
102,0.175249485
103,0.177958717
104,0.180589747
105,0.183195215
106,0.184108451
107,0.183749037
108,0.179655903
109,0.174389028
110,0.175645506
111,0.172850585
112,0.165439872
113,0.162185716
114,0.157588183
115,0.149766036
116,0.142803495
117,0.137563724
118,0.134558149
119,0.131985822
120,0.130579049
121,0.133337381
122,0.131634263
123,0.131123262
124,0.132389197
125,0.133021233
126,0.1316803
127,0.131447032
128,0.131519582
129,0.131522268
130,0.133609626
131,0.1344207
132,0.136057186
133,0.139111532
134,0.143366201
135,0.139362931
136,0.140467769
137,0.142322539
138,0.145788001
139,0.14971327
140,0.150866667
141,0.154951137
142,0.167100462
143,0.180785025
144,0.19061943
145,0.200372791
146,0.206631247
147,0.210486732
148,0.21142176
149,0.212699756
150,0.213924444
151,0.214345128
152,0.213899698
153,0.211797495
154,0.209693475
155,0.212144343
156,0.214345857
157,0.219314217
158,0.223556694
159,0.224668678
160,0.226906966
161,0.225940545
162,0.224925259
163,0.22069896
164,0.214975264
165,0.211734305
166,0.209071902
167,0.209222055
168,0.210310583
169,0.212545212
170,0.213438481
171,0.212493209
172,0.210677683
173,0.210131862
174,0.208947788
175,0.207101583
176,0.206728341
177,0.20705439
178,0.209076228
179,0.212247336
180,0.206867266
181,0.203041641
182,0.19814166
183,0.197681357
184,0.195758286
185,0.194721798
186,0.194102875
187,0.192925024
188,0.190302301
189,0.186685161
190,0.183114402
191,0.179867344
192,0.176608695
193,0.175618282
194,0.173047213
195,0.169876653
196,0.167367853
197,0.165137565
198,0.163730334
199,0.162540928
200,0.159305006
201,0.166998964
202,0.177344365
203,0.186344767
